{"componentChunkName":"component---node-modules-pitayan-gatsby-theme-pitayan-src-templates-category-posts-index-tsx","path":"/categories/post/1/","result":{"data":{"allMdx":{"totalCount":9,"pageInfo":{"currentPage":1,"hasNextPage":true,"hasPreviousPage":false,"pageCount":2},"nodes":[{"id":"80c59123-67ba-58ee-b07f-07108cf0e67f","timeToRead":2.15,"fields":{"slug":"/posts/no-heading-post"},"frontmatter":{"title":"No heading post","categories":["post","example"],"date":"February 12th, 2023","hero":{"normal":{"gatsbyImageData":{"layout":"constrained","placeholder":{"fallback":"data:image/jpeg;base64,/9j/2wBDABALDA4MChAODQ4SERATGCgaGBYWGDEjJR0oOjM9PDkzODdASFxOQERXRTc4UG1RV19iZ2hnPk1xeXBkeFxlZ2P/2wBDARESEhgVGC8aGi9jQjhCY2NjY2NjY2NjY2NjY2NjY2NjY2NjY2NjY2NjY2NjY2NjY2NjY2NjY2NjY2NjY2NjY2P/wgARCAANABQDASIAAhEBAxEB/8QAFwAAAwEAAAAAAAAAAAAAAAAAAAIDAf/EABYBAQEBAAAAAAAAAAAAAAAAAAABAv/aAAwDAQACEAMQAAABizyZwUT/xAAZEAADAQEBAAAAAAAAAAAAAAABAgMAEhP/2gAIAQEAAQUCSeedN5k5ZBiHYP0Qf//EABQRAQAAAAAAAAAAAAAAAAAAABD/2gAIAQMBAT8BP//EABQRAQAAAAAAAAAAAAAAAAAAABD/2gAIAQIBAT8BP//EABwQAAIBBQEAAAAAAAAAAAAAAAABIRAREiIxMv/aAAgBAQAGPwL0oOKm0mN4Gj//xAAdEAACAgEFAAAAAAAAAAAAAAAAAREhQVFxgZGh/9oACAEBAAE/IVp1J2fAtmWIQ70zsOLojQR0u8HdFPDg/9oADAMBAAIAAwAAABC4/wD/xAAXEQADAQAAAAAAAAAAAAAAAAAAAREh/9oACAEDAQE/EMkZEf/EABYRAQEBAAAAAAAAAAAAAAAAABEBAP/aAAgBAgEBPxCqzN3/xAAcEAEAAwACAwAAAAAAAAAAAAABABEhQXExYYH/2gAIAQEAAT8QcIEaHQgDyToi+iI3CTVJfzY8BQzFdVMWwgJfIy+YRGiBZy9M/9k="},"images":{"fallback":{"src":"/gatsby-theme-pitayan/static/bd6a3b1d34fa81767dd4c9547a692c51/b9482/demo_1.jpg","srcSet":"/gatsby-theme-pitayan/static/bd6a3b1d34fa81767dd4c9547a692c51/0f61a/demo_1.jpg 192w,\n/gatsby-theme-pitayan/static/bd6a3b1d34fa81767dd4c9547a692c51/c83fc/demo_1.jpg 384w,\n/gatsby-theme-pitayan/static/bd6a3b1d34fa81767dd4c9547a692c51/b9482/demo_1.jpg 768w","sizes":"(min-width: 768px) 768px, 100vw"},"sources":[]},"width":768,"height":511}}},"description":"This is a post page with no headings"}},{"id":"64fbc4de-f440-51c8-b29f-75e2674601e0","timeToRead":3.875,"fields":{"slug":"/posts/another-simple-post"},"frontmatter":{"title":"Another simple post","categories":["post","example"],"date":"April 6th, 2022","hero":{"normal":{"gatsbyImageData":{"layout":"constrained","placeholder":{"fallback":"data:image/jpeg;base64,/9j/2wBDABALDA4MChAODQ4SERATGCgaGBYWGDEjJR0oOjM9PDkzODdASFxOQERXRTc4UG1RV19iZ2hnPk1xeXBkeFxlZ2P/2wBDARESEhgVGC8aGi9jQjhCY2NjY2NjY2NjY2NjY2NjY2NjY2NjY2NjY2NjY2NjY2NjY2NjY2NjY2NjY2NjY2NjY2P/wgARCAANABQDASIAAhEBAxEB/8QAFwABAQEBAAAAAAAAAAAAAAAABAADBf/EABUBAQEAAAAAAAAAAAAAAAAAAAAB/9oADAMBAAIQAxAAAAHplUextpH/xAAcEAABAwUAAAAAAAAAAAAAAAACAAEDBBARITL/2gAIAQEAAQUCLYwRgTYtzUL/xAAUEQEAAAAAAAAAAAAAAAAAAAAQ/9oACAEDAQE/AT//xAAUEQEAAAAAAAAAAAAAAAAAAAAQ/9oACAECAQE/AT//xAAbEAABBAMAAAAAAAAAAAAAAAABABAhMQIRQv/aAAgBAQAGPwIhSJFqmx11Bb//xAAZEAEAAgMAAAAAAAAAAAAAAAABABEQIWH/2gAIAQEAAT8hHQKiDa1WgDRgNzgY/9oADAMBAAIAAwAAABA7H//EABQRAQAAAAAAAAAAAAAAAAAAABD/2gAIAQMBAT8QP//EABQRAQAAAAAAAAAAAAAAAAAAABD/2gAIAQIBAT8QP//EABsQAQACAwEBAAAAAAAAAAAAAAEAETFBYXGB/9oACAEBAAE/EO8UUlUwl8a6QOmBoAixsQ9jY/IguCf/2Q=="},"images":{"fallback":{"src":"/gatsby-theme-pitayan/static/284693fca7dee4d7dd6aab36167cca55/39611/demo_1.jpg","srcSet":"/gatsby-theme-pitayan/static/284693fca7dee4d7dd6aab36167cca55/0f61a/demo_1.jpg 192w,\n/gatsby-theme-pitayan/static/284693fca7dee4d7dd6aab36167cca55/c83fc/demo_1.jpg 384w,\n/gatsby-theme-pitayan/static/284693fca7dee4d7dd6aab36167cca55/39611/demo_1.jpg 768w,\n/gatsby-theme-pitayan/static/284693fca7dee4d7dd6aab36167cca55/83638/demo_1.jpg 1536w","sizes":"(min-width: 768px) 768px, 100vw"},"sources":[]},"width":768,"height":512}}},"description":"This is a post page with only simple paragraphs"}},{"id":"81531326-c647-5728-bfde-bf25fe224b06","timeToRead":2.18,"fields":{"slug":"/posts/a-simple-post-lorem-ipsum"},"frontmatter":{"title":"A Simple post lorem ipsum","categories":["sample","post"],"date":"April 5th, 2022","hero":{"normal":{"gatsbyImageData":{"layout":"constrained","placeholder":{"fallback":"data:image/jpeg;base64,/9j/2wBDABALDA4MChAODQ4SERATGCgaGBYWGDEjJR0oOjM9PDkzODdASFxOQERXRTc4UG1RV19iZ2hnPk1xeXBkeFxlZ2P/2wBDARESEhgVGC8aGi9jQjhCY2NjY2NjY2NjY2NjY2NjY2NjY2NjY2NjY2NjY2NjY2NjY2NjY2NjY2NjY2NjY2NjY2P/wgARCAAOABQDASIAAhEBAxEB/8QAFwABAQEBAAAAAAAAAAAAAAAAAAUBBv/EABUBAQEAAAAAAAAAAAAAAAAAAAEA/9oADAMBAAIQAxAAAAFvP0GqJAf/xAAdEAACAQQDAAAAAAAAAAAAAAABAgMABBARExQi/9oACAEBAAEFAmvU32UNcinEcPhgAf/EABYRAQEBAAAAAAAAAAAAAAAAAAEAEv/aAAgBAwEBPwELBf/EABYRAQEBAAAAAAAAAAAAAAAAAAABEf/aAAgBAgEBPwGtf//EABoQAAICAwAAAAAAAAAAAAAAAAABEBESITH/2gAIAQEABj8C0nHYyZR//8QAHRAAAgEEAwAAAAAAAAAAAAAAAREAECFBgVFhcf/aAAgBAQABPyGwHDkztDUATWjWsEryMZ6E/9oADAMBAAIAAwAAABCED//EABcRAQADAAAAAAAAAAAAAAAAAAEQESH/2gAIAQMBAT8QByoP/8QAFhEBAQEAAAAAAAAAAAAAAAAAABEh/9oACAECAQE/EMKf/8QAHhAAAgEEAwEAAAAAAAAAAAAAAREAMWGBkSFRcbH/2gAIAQEAAT8QOLxjeIBQybT7Ews3jgit0rpHnkLV4TEYI1ARuf/Z"},"images":{"fallback":{"src":"/gatsby-theme-pitayan/static/bcd38b500c4244e87ef53950d596a325/8f8fc/demo_1.jpg","srcSet":"/gatsby-theme-pitayan/static/bcd38b500c4244e87ef53950d596a325/c0a77/demo_1.jpg 192w,\n/gatsby-theme-pitayan/static/bcd38b500c4244e87ef53950d596a325/0f050/demo_1.jpg 384w,\n/gatsby-theme-pitayan/static/bcd38b500c4244e87ef53950d596a325/8f8fc/demo_1.jpg 768w,\n/gatsby-theme-pitayan/static/bcd38b500c4244e87ef53950d596a325/bb4df/demo_1.jpg 1536w","sizes":"(min-width: 768px) 768px, 100vw"},"sources":[]},"width":768,"height":522}}},"description":"Exactly same to other demo pages, it only contains the \"Lorem Ipsum\" paragraphs."}},{"id":"3d422dc3-2946-5219-a6f0-9bf2ead9ddaf","timeToRead":2.515,"fields":{"slug":"/posts/a-post-with-source-code"},"frontmatter":{"title":"A post with source code","categories":["sample","post"],"date":"April 4th, 2022","hero":{"normal":{"gatsbyImageData":{"layout":"constrained","placeholder":{"fallback":"data:image/jpeg;base64,/9j/2wBDABALDA4MChAODQ4SERATGCgaGBYWGDEjJR0oOjM9PDkzODdASFxOQERXRTc4UG1RV19iZ2hnPk1xeXBkeFxlZ2P/2wBDARESEhgVGC8aGi9jQjhCY2NjY2NjY2NjY2NjY2NjY2NjY2NjY2NjY2NjY2NjY2NjY2NjY2NjY2NjY2NjY2NjY2P/wgARCAANABQDASIAAhEBAxEB/8QAFwABAQEBAAAAAAAAAAAAAAAAAAUCBP/EABUBAQEAAAAAAAAAAAAAAAAAAAEC/9oADAMBAAIQAxAAAAHpR9sV0cP/xAAZEAADAQEBAAAAAAAAAAAAAAAAAQIREBL/2gAIAQEAAQUC9QjYZs8RrP/EABcRAQADAAAAAAAAAAAAAAAAAAABERL/2gAIAQMBAT8BqGX/xAAVEQEBAAAAAAAAAAAAAAAAAAAAEf/aAAgBAgEBPwGq/8QAGBAAAwEBAAAAAAAAAAAAAAAAAAExIDL/2gAIAQEABj8C6RSrH//EABoQAAMAAwEAAAAAAAAAAAAAAAABIRFBkcH/2gAIAQEAAT8hmTgK3HokL2NlZVQ1bP/aAAwDAQACAAMAAAAQ9C//xAAXEQADAQAAAAAAAAAAAAAAAAAAAREh/9oACAEDAQE/EEzCD//EABcRAQEBAQAAAAAAAAAAAAAAAAEAESH/2gAIAQIBAT8QWdt3/8QAHRABAQEAAQUBAAAAAAAAAAAAAREAITFBUXGR4f/aAAgBAQABPxBlG9EjgUVPTQlztf1loODnxiEFA4bZk4D5v//Z"},"images":{"fallback":{"src":"/gatsby-theme-pitayan/static/bc81cab7392a854fd1b0f4250ca46ac8/39611/demo_1.jpg","srcSet":"/gatsby-theme-pitayan/static/bc81cab7392a854fd1b0f4250ca46ac8/0f61a/demo_1.jpg 192w,\n/gatsby-theme-pitayan/static/bc81cab7392a854fd1b0f4250ca46ac8/c83fc/demo_1.jpg 384w,\n/gatsby-theme-pitayan/static/bc81cab7392a854fd1b0f4250ca46ac8/39611/demo_1.jpg 768w,\n/gatsby-theme-pitayan/static/bc81cab7392a854fd1b0f4250ca46ac8/659c6/demo_1.jpg 1536w","sizes":"(min-width: 768px) 768px, 100vw"},"sources":[]},"width":768,"height":512}}},"description":"This page contains some highlighted source code"}},{"id":"83434f80-977b-5696-8b4c-f364aff6b703","timeToRead":2.335,"fields":{"slug":"/posts/embed-social-media"},"frontmatter":{"title":"Social media embeds","categories":["sample","post"],"date":"April 3rd, 2022","hero":{"normal":{"gatsbyImageData":{"layout":"constrained","placeholder":{"fallback":"data:image/jpeg;base64,/9j/2wBDABALDA4MChAODQ4SERATGCgaGBYWGDEjJR0oOjM9PDkzODdASFxOQERXRTc4UG1RV19iZ2hnPk1xeXBkeFxlZ2P/2wBDARESEhgVGC8aGi9jQjhCY2NjY2NjY2NjY2NjY2NjY2NjY2NjY2NjY2NjY2NjY2NjY2NjY2NjY2NjY2NjY2NjY2P/wgARCAANABQDASIAAhEBAxEB/8QAGAAAAgMAAAAAAAAAAAAAAAAAAAMCBAX/xAAVAQEBAAAAAAAAAAAAAAAAAAABAv/aAAwDAQACEAMQAAABryz3xSRYn//EABkQAAMBAQEAAAAAAAAAAAAAAAABAgMSEf/aAAgBAQABBQJcjxVFTy5tonahv1//xAAVEQEBAAAAAAAAAAAAAAAAAAAQEv/aAAgBAwEBPwGj/8QAFhEBAQEAAAAAAAAAAAAAAAAAABES/9oACAECAQE/Aco//8QAFxABAQEBAAAAAAAAAAAAAAAAACERAf/aAAgBAQAGPwKVWJ1na1//xAAaEAEAAwADAAAAAAAAAAAAAAABABExIUFR/9oACAEBAAE/IbEpY8ycoupZoJphEYQrLWf/2gAMAwEAAgADAAAAEP8A/wD/xAAWEQEBAQAAAAAAAAAAAAAAAAAAARH/2gAIAQMBAT8QtNf/xAAVEQEBAAAAAAAAAAAAAAAAAAABEP/aAAgBAgEBPxAh/8QAHBABAAMAAgMAAAAAAAAAAAAAAQARITFxQZGh/9oACAEBAAE/EAIYORi/kyGOjqAgq0XzEjprz1FmkBp4SPDejP/Z"},"images":{"fallback":{"src":"/gatsby-theme-pitayan/static/cea6a05f6e7c32d3e366fb600f606bf0/39611/demo_1.jpg","srcSet":"/gatsby-theme-pitayan/static/cea6a05f6e7c32d3e366fb600f606bf0/0f61a/demo_1.jpg 192w,\n/gatsby-theme-pitayan/static/cea6a05f6e7c32d3e366fb600f606bf0/c83fc/demo_1.jpg 384w,\n/gatsby-theme-pitayan/static/cea6a05f6e7c32d3e366fb600f606bf0/39611/demo_1.jpg 768w,\n/gatsby-theme-pitayan/static/cea6a05f6e7c32d3e366fb600f606bf0/83638/demo_1.jpg 1536w","sizes":"(min-width: 768px) 768px, 100vw"},"sources":[]},"width":768,"height":512}}},"description":"Just a post page that displays demo components"}},{"id":"98486276-adf4-52ed-94d1-3314cb6aabb7","timeToRead":2.215,"fields":{"slug":"/posts/some-pictures"},"frontmatter":{"title":"A post with some pictures","categories":["sample","post"],"date":"April 2nd, 2022","hero":{"normal":{"gatsbyImageData":{"layout":"constrained","placeholder":{"fallback":"data:image/jpeg;base64,/9j/2wBDABALDA4MChAODQ4SERATGCgaGBYWGDEjJR0oOjM9PDkzODdASFxOQERXRTc4UG1RV19iZ2hnPk1xeXBkeFxlZ2P/2wBDARESEhgVGC8aGi9jQjhCY2NjY2NjY2NjY2NjY2NjY2NjY2NjY2NjY2NjY2NjY2NjY2NjY2NjY2NjY2NjY2NjY2P/wgARCAANABQDASIAAhEBAxEB/8QAGAAAAwEBAAAAAAAAAAAAAAAAAAIDBAX/xAAVAQEBAAAAAAAAAAAAAAAAAAACAP/aAAwDAQACEAMQAAABaiWNwjUM/wD/xAAbEAACAgMBAAAAAAAAAAAAAAABAgAhAxESE//aAAgBAQABBQJVG/NTCl47hbmMb//EABURAQEAAAAAAAAAAAAAAAAAAAAR/9oACAEDAQE/Aar/xAAWEQEBAQAAAAAAAAAAAAAAAAABABH/2gAIAQIBAT8BR2y//8QAGxAAAwACAwAAAAAAAAAAAAAAAAERAhAhQXH/2gAIAQEABj8CjxTJHj4zspwtf//EABoQAAMAAwEAAAAAAAAAAAAAAAABERAhUUH/2gAIAQEAAT8hpI8u0JOKMEezkEarRyn/2gAMAwEAAgADAAAAEAPP/8QAFxEBAQEBAAAAAAAAAAAAAAAAAQARIf/aAAgBAwEBPxAActX/xAAXEQEBAQEAAAAAAAAAAAAAAAABABFB/9oACAECAQE/EHF5Zv/EABsQAQEAAgMBAAAAAAAAAAAAAAERADEhUWGR/9oACAEBAAE/EIwAgG/cRkhp5d6xhVXq+4xRVeC8TCHtDd4K2c//2Q=="},"images":{"fallback":{"src":"/gatsby-theme-pitayan/static/27fa292c65b0123bb284fcd71ffc303b/39611/demo_1.jpg","srcSet":"/gatsby-theme-pitayan/static/27fa292c65b0123bb284fcd71ffc303b/0f61a/demo_1.jpg 192w,\n/gatsby-theme-pitayan/static/27fa292c65b0123bb284fcd71ffc303b/c83fc/demo_1.jpg 384w,\n/gatsby-theme-pitayan/static/27fa292c65b0123bb284fcd71ffc303b/39611/demo_1.jpg 768w,\n/gatsby-theme-pitayan/static/27fa292c65b0123bb284fcd71ffc303b/83638/demo_1.jpg 1536w","sizes":"(min-width: 768px) 768px, 100vw"},"sources":[]},"width":768,"height":512}}},"description":"Just a post page that displays demo components"}}]}},"pageContext":{"category":"post","limit":6,"skip":0,"currentPage":1}},"staticQueryHashes":["176088207"],"slicesMap":{}}